ar\com\controller\GeneroController.class
ar\com\repository\PrestamoRepositoryCustom.class
ar\com\repository\AutorRepositoryCustom.class
ar\com\repository\SocioRepositoryCustom.class
ar\com\service\EjemplarServiceImplem.class
ar\com\service\SocioServiceImplem.class
ar\com\service\EstadoService.class
ar\com\repository\EditorialRepositoryCustom.class
ar\com\controller\LibroController.class
ar\com\repository\GeneroRepositoryCustom.class
ar\com\service\EjemplarService.class
ar\com\dto\AutorDTO.class
ar\com\repository\EjemplarEstadoRepository.class
ar\com\model\Genero.class
ar\com\service\EditorialServiceImplem.class
ar\com\repository\BibliotecaRepository.class
ar\com\repository\TemaRepositoryCustom.class
ar\com\service\EstadoPrestamoService.class
ar\com\repository\TemaRepository.class
ar\com\controller\SocioController.class
ar\com\repository\AutorRepository.class
ar\com\service\AutorServiceImplem.class
ar\com\service\LibroServiceImplem.class
ar\com\dto\EstadoEjemplarDTO.class
ar\com\BiblioApplication.class
ar\com\dto\PrestamoDTO.class
ar\com\model\EstadoEjemplar.class
ar\com\controller\EditorialController.class
ar\com\model\EstadoPrestamo.class
ar\com\repository\EjemplarRepositoryCustom.class
ar\com\model\Ejemplar.class
ar\com\repository\SocioRepositoryCustomClassImpl.class
ar\com\controller\TemaController.class
ar\com\dto\EditorialDTO.class
ar\com\repository\SocioRepository.class
ar\com\service\PrestamoServiceImplem.class
ar\com\service\EditorialService.class
ar\com\repository\SocioRepositoryCustomClass.class
ar\com\service\GeneroServiceImplem.class
ar\com\model\Biblioteca.class
ar\com\repository\GeneroRepository.class
ar\com\ServletInitializer.class
ar\com\service\GeneroService.class
ar\com\repository\AutorRepositoryCustomClassImpl.class
ar\com\controller\AutorController.class
ar\com\repository\LibroRepository.class
ar\com\dto\EjemplarDTO.class
ar\com\controller\PrestamoController.class
ar\com\model\Editorial.class
ar\com\model\Prestamo.class
ar\com\controller\EjemplarController.class
ar\com\service\SocioService.class
ar\com\model\Libro.class
ar\com\service\AutorService.class
ar\com\service\PrestamoService.class
ar\com\dto\GeneroDTO.class
ar\com\service\LibroService.class
ar\com\dto\TemaDTO.class
ar\com\dto\LibroDTO.class
ar\com\dto\SocioDTO.class
ar\com\service\TemaService.class
ar\com\dto\EstadoPrestamoDTO.class
ar\com\model\Socio.class
ar\com\service\TemaServiceImplem.class
ar\com\repository\EjemplarRepository.class
ar\com\repository\PrestamoRepository.class
ar\com\repository\EditorialRepository.class
ar\com\repository\AutorRepositoryCustomClass.class
ar\com\repository\EditorialRepositoryCustomClass.class
ar\com\repository\EstadoPrestamoRepository.class
ar\com\model\Autor.class
ar\com\model\Tema.class
ar\com\repository\EditorialRepositoryCustomClassImpl.class
